module gitlab.com/elaina/std-go

go 1.18

require (
	github.com/gin-gonic/gin v1.7.7
	github.com/jinzhu/gorm v1.9.16
	github.com/jordan-wright/email v4.0.1-0.20210109023952-943e75fe5223+incompatible
)

require (
	github.com/gin-contrib/sse v0.1.0 // indirect
	github.com/go-playground/locales v0.14.0 // indirect
	github.com/go-playground/universal-translator v0.18.0 // indirect
	github.com/go-playground/validator/v10 v10.10.0 // indirect
	github.com/go-sql-driver/mysql v1.5.0 // indirect
	github.com/golang/protobuf v1.5.2 // indirect
	github.com/jinzhu/inflection v1.0.0 // indirect
	github.com/json-iterator/go v1.1.12 // indirect
	github.com/leodido/go-urn v1.2.1 // indirect
	github.com/mattn/go-isatty v0.0.14 // indirect
	github.com/modern-go/concurrent v0.0.0-20180306012644-bacd9c7ef1dd // indirect
	github.com/modern-go/reflect2 v1.0.2 // indirect
	github.com/ugorji/go/codec v1.2.6 // indirect
	golang.org/x/crypto v0.0.0-20211215153901-e495a2d5b3d3 // indirect
	golang.org/x/sys v0.0.0-20211216021012-1d35b9e2eb4e // indirect
	golang.org/x/text v0.3.7 // indirect
	golang.org/x/xerrors v0.0.0-20200804184101-5ec99f83aff1 // indirect
	google.golang.org/protobuf v1.27.1 // indirect
	gopkg.in/yaml.v2 v2.4.0 // indirect
)
